\relax 
\providecommand\hyper@newdestlabel[2]{}
\providecommand\HyperFirstAtBeginDocument{\AtBeginDocument}
\HyperFirstAtBeginDocument{\ifx\hyper@anchor\@undefined
\global\let\oldcontentsline\contentsline
\gdef\contentsline#1#2#3#4{\oldcontentsline{#1}{#2}{#3}}
\global\let\oldnewlabel\newlabel
\gdef\newlabel#1#2{\newlabelxx{#1}#2}
\gdef\newlabelxx#1#2#3#4#5#6{\oldnewlabel{#1}{{#2}{#3}}}
\AtEndDocument{\ifx\hyper@anchor\@undefined
\let\contentsline\oldcontentsline
\let\newlabel\oldnewlabel
\fi}
\fi}
\global\let\hyper@last\relax 
\gdef\HyperFirstAtBeginDocument#1{#1}
\providecommand\HyField@AuxAddToFields[1]{}
\providecommand\HyField@AuxAddToCoFields[2]{}
\pgfsyspdfmark {pgfid1}{3520053}{40620947}
\pgfsyspdfmark {pgfid2}{3520053}{39048083}
\pgfsyspdfmark {pgfid3}{3677994}{39048083}
\pgfsyspdfmark {pgfid4}{3835935}{39048083}
\pgfsyspdfmark {pgfid5}{3993876}{39048083}
\pgfsyspdfmark {pgfid6}{4151817}{39048083}
\pgfsyspdfmark {pgfid7}{4309758}{39048083}
\pgfsyspdfmark {pgfid8}{4467699}{39048083}
\pgfsyspdfmark {pgfid9}{3520053}{37475219}
\pgfsyspdfmark {pgfid10}{3677994}{37475219}
\pgfsyspdfmark {pgfid11}{3520053}{35902355}
\pgfsyspdfmark {pgfid12}{3520053}{34329491}
\pgfsyspdfmark {pgfid13}{3520053}{32756627}
\pgfsyspdfmark {pgfid14}{3520053}{31183763}
\pgfsyspdfmark {pgfid15}{3520053}{29610899}
\pgfsyspdfmark {pgfid16}{3520053}{28038035}
\@writefile{toc}{\contentsline {chapter}{From The Editor Of The Russian Edition}{7}{chapter*.1}\protected@file@percent }
\@writefile{lof}{\addvspace {10\p@ }}
\@writefile{lot}{\addvspace {10\p@ }}
\newlabel{preface}{{}{7}{From The Editor Of The Russian Edition}{chapter*.1}{}}
\@writefile{toc}{\contentsline {chapter}{Foreword}{9}{chapter*.2}\protected@file@percent }
\@writefile{lof}{\addvspace {10\p@ }}
\@writefile{lot}{\addvspace {10\p@ }}
\newlabel{foreword}{{}{9}{Foreword}{chapter*.2}{}}
\newpmemlabel{^_1}{11}
\@writefile{toc}{\contentsline {chapter}{\numberline {1}Can You Analyse Graphs Representing The Kinematics Of Straight-Line Motion?}{13}{chapter.1}\protected@file@percent }
\@writefile{lof}{\addvspace {10\p@ }}
\@writefile{lot}{\addvspace {10\p@ }}
\newlabel{ch-01}{{1}{13}{Can You Analyse Graphs Representing The Kinematics Of Straight-Line Motion?}{chapter.1}{}}
\newpmemlabel{^_2}{13}
\@writefile{lof}{\contentsline {figure}{\numberline {1}{\ignorespaces On the basis of this graph can you draw a graph showing the dependence of distance travelled on time?}}{13}{chapter.1}\protected@file@percent }
\newlabel{fig-01}{{1}{13}{Can You Analyse Graphs Representing The Kinematics Of Straight-Line Motion?}{chapter.1}{}}
\newlabel{eq-001}{{1}{14}{Can You Analyse Graphs Representing The Kinematics Of Straight-Line Motion?}{equation.1.0.1}{}}
\newlabel{eq-002}{{2}{14}{Can You Analyse Graphs Representing The Kinematics Of Straight-Line Motion?}{equation.1.0.2}{}}
\newlabel{eq-003}{{3}{15}{Can You Analyse Graphs Representing The Kinematics Of Straight-Line Motion?}{equation.1.0.3}{}}
\newpmemlabel{^_3}{15}
\@writefile{lof}{\contentsline {figure}{\numberline {2}{\ignorespaces Students' incorrect graph showing distance covered $s$ as a function of time $t$.}}{15}{equation.1.0.3}\protected@file@percent }
\newlabel{fig-02}{{2}{15}{Can You Analyse Graphs Representing The Kinematics Of Straight-Line Motion?}{equation.1.0.3}{}}
\newpmemlabel{^_4}{15}
\@writefile{lof}{\contentsline {figure}{\numberline {3}{\ignorespaces Corrected graph showing distance covered $s$ as a function of time $t$.}}{16}{equation.1.0.3}\protected@file@percent }
\newlabel{fig-03}{{3}{16}{Can You Analyse Graphs Representing The Kinematics Of Straight-Line Motion?}{equation.1.0.3}{}}
\newlabel{eq-004}{{4}{16}{Can You Analyse Graphs Representing The Kinematics Of Straight-Line Motion?}{equation.1.0.4}{}}
\newpmemlabel{^_5}{16}
\@writefile{lof}{\contentsline {figure}{\numberline {4}{\ignorespaces Corrected graph showing distance covered $s$ as a function of time $t$.}}{16}{equation.1.0.4}\protected@file@percent }
\newlabel{fig-04}{{4}{16}{Can You Analyse Graphs Representing The Kinematics Of Straight-Line Motion?}{equation.1.0.4}{}}
\newpmemlabel{^_6}{17}
\newpmemlabel{^_7}{17}
\@writefile{lof}{\contentsline {figure}{\numberline {5}{\ignorespaces Corrected graph with kinks showing distance travelled $s$ as a function of time $t$.}}{18}{equation.1.0.4}\protected@file@percent }
\newlabel{fig-05}{{5}{18}{Can You Analyse Graphs Representing The Kinematics Of Straight-Line Motion?}{equation.1.0.4}{}}
\@writefile{lof}{\contentsline {figure}{\numberline {6}{\ignorespaces Velocity \emph  {vs} time graph for the function shown in \leavevmode {\color {darkgray}Figure\nobreakspace  {}\ref  {fig-05}}.}}{18}{equation.1.0.4}\protected@file@percent }
\newlabel{fig-06}{{6}{18}{Can You Analyse Graphs Representing The Kinematics Of Straight-Line Motion?}{equation.1.0.4}{}}
\newpmemlabel{^_8}{19}
\@writefile{toc}{\contentsline {chapter}{\numberline {2}Can You Show The Forces Applied To A Body?}{21}{chapter.2}\protected@file@percent }
\@writefile{lof}{\addvspace {10\p@ }}
\@writefile{lot}{\addvspace {10\p@ }}
\newlabel{ch-02}{{2}{21}{Can You Show The Forces Applied To A Body?}{chapter.2}{}}
\@writefile{lof}{\contentsline {figure}{\numberline {7}{\ignorespaces A variety of different situations for bodies. For each case we have to find out the forces acting on the given body.}}{21}{Item.4}\protected@file@percent }
\newlabel{fig-07}{{7}{21}{Can You Show The Forces Applied To A Body?}{Item.4}{}}
\@writefile{lof}{\contentsline {figure}{\numberline {8}{\ignorespaces Student response for forces acting on bodies in different situations given in \leavevmode {\color {darkgray}Figure\nobreakspace  {}\ref  {fig-07}}.}}{22}{Item.4}\protected@file@percent }
\newlabel{fig-08}{{8}{22}{Can You Show The Forces Applied To A Body?}{Item.4}{}}
\@writefile{lof}{\contentsline {figure}{\numberline {9}{\ignorespaces For each case the correct drawing of forces acting on the bodies are made. Compare this with \leavevmode {\color {darkgray}Figure\nobreakspace  {}\ref  {fig-08}}.}}{23}{Item.4}\protected@file@percent }
\newlabel{fig-09}{{9}{23}{Can You Show The Forces Applied To A Body?}{Item.4}{}}
\newlabel{eq-05}{{5}{23}{Can You Show The Forces Applied To A Body?}{equation.2.0.5}{}}
\newpmemlabel{^_9}{24}
\@writefile{lof}{\contentsline {figure}{\numberline {10}{\ignorespaces A body on inclined plane and forces acting on it.}}{24}{equation.2.0.5}\protected@file@percent }
\newlabel{fig-10}{{10}{24}{Can You Show The Forces Applied To A Body?}{equation.2.0.5}{}}
\newpmemlabel{^_10}{25}
\@writefile{lof}{\contentsline {figure}{\numberline {11}{\ignorespaces Forces acting on an electrically charged pendulum inside a parallel plate capacitor.}}{25}{equation.2.0.5}\protected@file@percent }
\newlabel{fig-11}{{11}{25}{Can You Show The Forces Applied To A Body?}{equation.2.0.5}{}}
\newpmemlabel{^_11}{25}
\@writefile{lof}{\contentsline {figure}{\numberline {12}{\ignorespaces What are the forces acting on three bodies on balanced on an incline?}}{25}{equation.2.0.5}\protected@file@percent }
\newlabel{fig-12}{{12}{25}{Can You Show The Forces Applied To A Body?}{equation.2.0.5}{}}
\newpmemlabel{^_12}{26}
\@writefile{lof}{\contentsline {figure}{\numberline {13}{\ignorespaces Forces acting on the three bodies balanced on an incline as shown in Figure \ref  {fig-12}.}}{26}{equation.2.0.5}\protected@file@percent }
\newlabel{fig-13}{{13}{26}{Can You Show The Forces Applied To A Body?}{equation.2.0.5}{}}
\newpmemlabel{^_13}{28}
\@writefile{lof}{\contentsline {figure}{\numberline {14}{\ignorespaces Forces acting on the three bodies on balanced on an incline shown in \leavevmode {\color {darkgray}Figure\nobreakspace  {}\ref  {fig-12}}.}}{29}{equation.2.0.5}\protected@file@percent }
\newlabel{fig-14}{{14}{29}{Can You Show The Forces Applied To A Body?}{equation.2.0.5}{}}
\@writefile{toc}{\contentsline {chapter}{\numberline {3}Can You Determine The Friction Force?}{31}{chapter.3}\protected@file@percent }
\@writefile{lof}{\addvspace {10\p@ }}
\@writefile{lot}{\addvspace {10\p@ }}
\newlabel{ch-03}{{3}{31}{Can You Determine The Friction Force?}{chapter.3}{}}
\newpmemlabel{^_14}{31}
\@writefile{lof}{\contentsline {figure}{\numberline {15}{\ignorespaces A sled being pulled with a rope.}}{31}{chapter.3}\protected@file@percent }
\newlabel{fig-15}{{15}{31}{Can You Determine The Friction Force?}{chapter.3}{}}
\newlabel{eq-06}{{6}{32}{Can You Determine The Friction Force?}{equation.3.0.6}{}}
\newlabel{eq-07}{{7}{32}{Can You Determine The Friction Force?}{equation.3.0.7}{}}
\newpmemlabel{^_15}{33}
\@writefile{lof}{\contentsline {figure}{\numberline {16}{\ignorespaces Forces acting on a body at rest.}}{33}{equation.3.0.7}\protected@file@percent }
\newlabel{fig-16}{{16}{33}{Can You Determine The Friction Force?}{equation.3.0.7}{}}
\newlabel{eq-08}{{8}{33}{Can You Determine The Friction Force?}{equation.3.0.8}{}}
\newlabel{eq-09}{{9}{34}{Can You Determine The Friction Force?}{equation.3.0.9}{}}
\@writefile{lof}{\contentsline {figure}{\numberline {17}{\ignorespaces A load of mass $m$ lies on a body of mass $M$. We have to find the minimum force $F$ so that load begins to slide. }}{34}{equation.3.0.9}\protected@file@percent }
\newlabel{fig-17}{{17}{34}{Can You Determine The Friction Force?}{equation.3.0.9}{}}
\@writefile{toc}{\contentsline {chapter}{\numberline {4}How Well Do You Know Newton's Laws Of Motion?}{37}{chapter.4}\protected@file@percent }
\@writefile{lof}{\addvspace {10\p@ }}
\@writefile{lot}{\addvspace {10\p@ }}
\newlabel{ch-04}{{4}{37}{How Well Do You Know Newton's Laws Of Motion?}{chapter.4}{}}
\newlabel{eq-10}{{10}{39}{How Well Do You Know Newton's Laws Of Motion?}{equation.4.0.10}{}}
\newlabel{eq-11}{{11}{40}{How Well Do You Know Newton's Laws Of Motion?}{equation.4.0.11}{}}
\@writefile{lof}{\contentsline {figure}{\numberline {18}{\ignorespaces Depicting change in velocity vectorially.}}{40}{equation.4.0.11}\protected@file@percent }
\newlabel{fig-18}{{18}{40}{How Well Do You Know Newton's Laws Of Motion?}{equation.4.0.11}{}}
\newlabel{eq-12}{{12}{40}{How Well Do You Know Newton's Laws Of Motion?}{equation.4.0.12}{}}
\newlabel{eq-13}{{13}{40}{How Well Do You Know Newton's Laws Of Motion?}{equation.4.0.13}{}}
\@writefile{lof}{\contentsline {figure}{\numberline {19}{\ignorespaces Trajectories of bodies with different initial velocities.}}{42}{equation.4.0.13}\protected@file@percent }
\newlabel{fig-19}{{19}{42}{How Well Do You Know Newton's Laws Of Motion?}{equation.4.0.13}{}}
\@writefile{lof}{\contentsline {figure}{\numberline {20}{\ignorespaces A ball hanging from a string can have different resultant motions depending on the initial conditions.}}{42}{equation.4.0.13}\protected@file@percent }
\newlabel{fig-20}{{20}{42}{How Well Do You Know Newton's Laws Of Motion?}{equation.4.0.13}{}}
\newpmemlabel{^_16}{44}
\@writefile{lof}{\contentsline {figure}{\numberline {21}{\ignorespaces Resolving the forces on a moving pendulum.}}{44}{Item.6}\protected@file@percent }
\newlabel{fig-21}{{21}{44}{How Well Do You Know Newton's Laws Of Motion?}{Item.6}{}}
\newpmemlabel{^_17}{46}
\@writefile{lof}{\contentsline {figure}{\numberline {22}{\ignorespaces Why do the horse and waggon travel forward with an acceleration?}}{46}{Item.6}\protected@file@percent }
\newlabel{fig-22}{{22}{46}{How Well Do You Know Newton's Laws Of Motion?}{Item.6}{}}
\newpmemlabel{^_18}{49}
\@writefile{toc}{\contentsline {chapter}{\numberline {5}How Do You Go About Solving Problems In Kinematics?}{51}{chapter.5}\protected@file@percent }
\@writefile{lof}{\addvspace {10\p@ }}
\@writefile{lot}{\addvspace {10\p@ }}
\newlabel{ch-05}{{5}{51}{How Do You Go About Solving Problems In Kinematics?}{chapter.5}{}}
\newpmemlabel{^_19}{51}
\@writefile{lof}{\contentsline {figure}{\numberline {23}{\ignorespaces Two bodies falling from height $H$. One of them meets a fixed plane at height $h$. Problem is to compare the time of fall of the two bodies.}}{52}{chapter.5}\protected@file@percent }
\newlabel{fig-23}{{23}{52}{How Do You Go About Solving Problems In Kinematics?}{chapter.5}{}}
\newpmemlabel{^_20}{54}
\@writefile{lof}{\contentsline {figure}{\numberline {24}{\ignorespaces A body thrown with an angle $\alpha $ to the horizon. The problem is to find the time of flight, maximum height reached and the range of the body.}}{54}{chapter.5}\protected@file@percent }
\newlabel{fig-24}{{24}{54}{How Do You Go About Solving Problems In Kinematics?}{chapter.5}{}}
\newlabel{eq-14}{{14}{54}{How Do You Go About Solving Problems In Kinematics?}{equation.5.0.14}{}}
\newlabel{eq-15}{{15}{54}{How Do You Go About Solving Problems In Kinematics?}{equation.5.0.15}{}}
\newlabel{eq-16}{{16}{55}{How Do You Go About Solving Problems In Kinematics?}{equation.5.0.16}{}}
\newlabel{eq-17}{{17}{55}{How Do You Go About Solving Problems In Kinematics?}{equation.5.0.17}{}}
\newlabel{eq-18}{{18}{56}{How Do You Go About Solving Problems In Kinematics?}{equation.5.0.18}{}}
\newpmemlabel{^_21}{56}
\@writefile{lof}{\contentsline {figure}{\numberline {25}{\ignorespaces A body thrown with an angle $\alpha $ to an inclined plane. The problem is to find the distance at which the body will land on the inclined plane.}}{56}{equation.5.0.18}\protected@file@percent }
\newlabel{fig-25}{{25}{56}{How Do You Go About Solving Problems In Kinematics?}{equation.5.0.18}{}}
\newpmemlabel{^_22}{56}
\@writefile{lof}{\contentsline {figure}{\numberline {26}{\ignorespaces Rotating the \leavevmode {\color {darkgray}Figure\nobreakspace  {}\ref  {fig-25}} through angle $\beta $ gives us a problem similar to the one we have solved in the previous section. }}{57}{equation.5.0.18}\protected@file@percent }
\newlabel{fig-26}{{26}{57}{How Do You Go About Solving Problems In Kinematics?}{equation.5.0.18}{}}
\newlabel{eq-19}{{19}{57}{How Do You Go About Solving Problems In Kinematics?}{equation.5.0.19}{}}
\newlabel{eq-20}{{20}{58}{How Do You Go About Solving Problems In Kinematics?}{equation.5.0.20}{}}
\newlabel{prob-01}{{5}{59}{}{equation.5.0.20}{}}
\@writefile{toc}{\contentsline {section}{Problems}{59}{equation.5.0.20}\protected@file@percent }
\@writefile{toc}{\contentsline {chapter}{\numberline {6}How Do You Go About Solving Problems In Dynamics?}{61}{chapter.6}\protected@file@percent }
\@writefile{lof}{\addvspace {10\p@ }}
\@writefile{lot}{\addvspace {10\p@ }}
\newlabel{ch-06}{{6}{61}{How Do You Go About Solving Problems In Dynamics?}{chapter.6}{}}
\newpmemlabel{^_23}{62}
\@writefile{lof}{\contentsline {figure}{\numberline {27}{\ignorespaces Two ways of resolving the forces applied to a body in motion.}}{62}{Item.20}\protected@file@percent }
\newlabel{fig-27}{{27}{62}{How Do You Go About Solving Problems In Dynamics?}{Item.20}{}}
\newlabel{eq-21}{{21}{62}{How Do You Go About Solving Problems In Dynamics?}{equation.6.0.21}{}}
\newlabel{eq-22}{{22}{63}{How Do You Go About Solving Problems In Dynamics?}{equation.6.0.22}{}}
\newlabel{eq-23}{{23}{64}{How Do You Go About Solving Problems In Dynamics?}{equation.6.0.23}{}}
\newlabel{prob-02}{{6}{65}{}{equation.6.0.23}{}}
\@writefile{toc}{\contentsline {section}{Problems}{65}{equation.6.0.23}\protected@file@percent }
\newpmemlabel{^_24}{65}
\@writefile{lof}{\contentsline {figure}{\numberline {28}{\ignorespaces Sled being pulled by a rope with an angle \ang {45}. See Problem 9.}}{65}{Item.22}\protected@file@percent }
\newlabel{fig-28}{{28}{65}{}{Item.22}{}}
\newpmemlabel{^_25}{65}
\@writefile{lof}{\contentsline {figure}{\numberline {29}{\ignorespaces A system of three interacting masses. See Problem 10.}}{65}{Item.23}\protected@file@percent }
\newlabel{fig-29}{{29}{65}{}{Item.23}{}}
\newpmemlabel{^_26}{66}
\@writefile{lof}{\contentsline {figure}{\numberline {30}{\ignorespaces A system of three masses on an incline. See problem 11.}}{66}{Item.24}\protected@file@percent }
\newlabel{fig-30}{{30}{66}{}{Item.24}{}}
\@writefile{lof}{\contentsline {figure}{\numberline {31}{\ignorespaces A system of three masses on an incline. See problem 12}}{66}{Item.25}\protected@file@percent }
\newlabel{fig-31}{{31}{66}{}{Item.25}{}}
\@writefile{toc}{\contentsline {chapter}{\numberline {7}Are Problems In Dynamics Much More Difficult To Solve If Friction Is Taken Into Account?}{67}{chapter.7}\protected@file@percent }
\@writefile{lof}{\addvspace {10\p@ }}
\@writefile{lot}{\addvspace {10\p@ }}
\newlabel{ch-07}{{7}{67}{Are Problems In Dynamics Much More Difficult To Solve If Friction Is Taken Into Account?}{chapter.7}{}}
\newlabel{eq-24}{{24}{68}{Are Problems In Dynamics Much More Difficult To Solve If Friction Is Taken Into Account?}{equation.7.0.24}{}}
\newlabel{eq-25}{{25}{68}{Are Problems In Dynamics Much More Difficult To Solve If Friction Is Taken Into Account?}{equation.7.0.25}{}}
\newlabel{eq-26}{{26}{68}{Are Problems In Dynamics Much More Difficult To Solve If Friction Is Taken Into Account?}{equation.7.0.26}{}}
\newlabel{eq-27}{{27}{68}{Are Problems In Dynamics Much More Difficult To Solve If Friction Is Taken Into Account?}{equation.7.0.27}{}}
\newlabel{eq-28}{{28}{69}{Are Problems In Dynamics Much More Difficult To Solve If Friction Is Taken Into Account?}{equation.7.0.28}{}}
\newlabel{eq-29}{{29}{69}{Are Problems In Dynamics Much More Difficult To Solve If Friction Is Taken Into Account?}{equation.7.0.29}{}}
\newlabel{eq-30}{{30}{71}{Are Problems In Dynamics Much More Difficult To Solve If Friction Is Taken Into Account?}{equation.7.0.30}{}}
\newlabel{eq-31}{{31}{71}{Are Problems In Dynamics Much More Difficult To Solve If Friction Is Taken Into Account?}{equation.7.0.31}{}}
\newpmemlabel{^_27}{72}
\@writefile{lof}{\contentsline {figure}{\numberline {32}{\ignorespaces Two bodies connected via string on an inclined plane with friction. The problem is to find the acceleration of the system.}}{72}{equation.7.0.31}\protected@file@percent }
\newlabel{fig-32}{{32}{72}{Are Problems In Dynamics Much More Difficult To Solve If Friction Is Taken Into Account?}{equation.7.0.31}{}}
\newlabel{eq-32}{{32}{72}{Are Problems In Dynamics Much More Difficult To Solve If Friction Is Taken Into Account?}{equation.7.0.32}{}}
\newlabel{eq-33}{{33}{72}{Are Problems In Dynamics Much More Difficult To Solve If Friction Is Taken Into Account?}{equation.7.0.33}{}}
\newlabel{prob-07}{{7}{73}{}{equation.7.0.33}{}}
\@writefile{toc}{\contentsline {section}{Problems}{73}{equation.7.0.33}\protected@file@percent }
\newpmemlabel{^_28}{75}
\@writefile{toc}{\contentsline {chapter}{\numberline {8}How Do You Deal With Motion In A Circle?}{77}{chapter.8}\protected@file@percent }
\@writefile{lof}{\addvspace {10\p@ }}
\@writefile{lot}{\addvspace {10\p@ }}
\newlabel{ch-08}{{8}{77}{How Do You Deal With Motion In A Circle?}{chapter.8}{}}
\newlabel{eq-34}{{34}{78}{How Do You Deal With Motion In A Circle?}{equation.8.0.34}{}}
\newlabel{eq-34a}{{{34a}}{79}{How Do You Deal With Motion In A Circle?}{equation.8.0.35}{}}
\newpmemlabel{^_29}{80}
\@writefile{lof}{\contentsline {figure}{\numberline {33}{\ignorespaces A conical pendulum. The body attached to the string performs circular motion in the horizontal plane. During this motion the solid that it traces has the shape of a cone.}}{80}{equation.8.0.35}\protected@file@percent }
\newlabel{fig-33}{{33}{80}{How Do You Deal With Motion In A Circle?}{equation.8.0.35}{}}
\@writefile{lof}{\contentsline {figure}{\numberline {34}{\ignorespaces A ball on the floor touching a wall at an obtuse angle with the floor.}}{81}{equation.8.0.35}\protected@file@percent }
\newlabel{fig-34}{{34}{81}{How Do You Deal With Motion In A Circle?}{equation.8.0.35}{}}
\newpmemlabel{^_30}{82}
\@writefile{lof}{\contentsline {figure}{\numberline {35}{\ignorespaces Resolution of forces acting on a body in nonuniform circular motion.}}{83}{equation.8.0.35}\protected@file@percent }
\newlabel{fig-35}{{35}{83}{How Do You Deal With Motion In A Circle?}{equation.8.0.35}{}}
\newlabel{eq-35}{{35}{83}{How Do You Deal With Motion In A Circle?}{equation.8.0.35}{}}
\newlabel{eq-36}{{36}{83}{How Do You Deal With Motion In A Circle?}{equation.8.0.36}{}}
\newlabel{eq-37}{{37}{84}{How Do You Deal With Motion In A Circle?}{equation.8.0.37}{}}
\newlabel{eq-38}{{38}{84}{How Do You Deal With Motion In A Circle?}{equation.8.0.38}{}}
\@writefile{lof}{\contentsline {figure}{\numberline {36}{\ignorespaces A body travels from point $A$ to point $C$ via two different paths. The problem is to find the minimum initial velocity in the two cases.}}{85}{equation.8.0.38}\protected@file@percent }
\newlabel{fig-36}{{36}{85}{How Do You Deal With Motion In A Circle?}{equation.8.0.38}{}}
\newlabel{eq-39}{{39}{85}{How Do You Deal With Motion In A Circle?}{equation.8.0.39}{}}
\newlabel{eq-40}{{40}{85}{How Do You Deal With Motion In A Circle?}{equation.8.0.40}{}}
\@writefile{lof}{\contentsline {figure}{\numberline {37}{\ignorespaces A body moving on a circular track. The problem is to find the point at which it would fall away from the track if the initial velocity is $v_{0}=\sqrt  {2gH}$.}}{86}{equation.8.0.40}\protected@file@percent }
\newlabel{fig-37}{{37}{86}{How Do You Deal With Motion In A Circle?}{equation.8.0.40}{}}
\newpmemlabel{^_31}{86}
\newlabel{eq-41}{{41}{86}{How Do You Deal With Motion In A Circle?}{equation.8.0.41}{}}
\newlabel{eq-42}{{42}{86}{How Do You Deal With Motion In A Circle?}{equation.8.0.42}{}}
\newlabel{eq-43}{{43}{86}{How Do You Deal With Motion In A Circle?}{equation.8.0.43}{}}
\@writefile{lof}{\contentsline {figure}{\numberline {38}{\ignorespaces A body lies on a rotating inclined plane. Problem is to find the maximum value of static friction coefficient at which body remains on the plane without sliding off.}}{87}{equation.8.0.43}\protected@file@percent }
\newlabel{fig-38}{{38}{87}{How Do You Deal With Motion In A Circle?}{equation.8.0.43}{}}
\newlabel{eq-44}{{44}{89}{How Do You Deal With Motion In A Circle?}{equation.8.0.44}{}}
\newlabel{eq-45}{{45}{89}{How Do You Deal With Motion In A Circle?}{equation.8.0.45}{}}
\newlabel{prob-08}{{8}{89}{}{equation.8.0.45}{}}
\@writefile{toc}{\contentsline {section}{Problems}{89}{equation.8.0.45}\protected@file@percent }
\newpmemlabel{^_32}{89}
\@writefile{lof}{\contentsline {figure}{\numberline {39}{\ignorespaces A body slides from a given height and then loops on a circular track. Problem is to find ratio of forces which the body bears against the track at points $A$, $B$ and $C$. See Problem 16.}}{89}{Item.48}\protected@file@percent }
\newlabel{fig-39}{{39}{89}{}{Item.48}{}}
\newpmemlabel{^_33}{90}
\@writefile{lof}{\contentsline {figure}{\numberline {40}{\ignorespaces A body slides without friction on a uniformly rotating circular trough. Problem is to find the force the body exerts on the trough and the height at which the body will be at rest. See Problem 19.}}{90}{Item.51}\protected@file@percent }
\newlabel{fig-40}{{40}{90}{}{Item.51}{}}
\newpmemlabel{^_34}{90}
\@writefile{lof}{\contentsline {figure}{\numberline {41}{\ignorespaces A body slides without friction form top of the hoop. Problem is to find distance $l$ from the point where the hoop is fixes and the body will fall. See Problem 20.}}{90}{Item.52}\protected@file@percent }
\newlabel{fig-41}{{41}{90}{}{Item.52}{}}
\@writefile{toc}{\contentsline {chapter}{\numberline {9}How Do You Explain The Weightlessness Of Bodies?}{91}{chapter.9}\protected@file@percent }
\@writefile{lof}{\addvspace {10\p@ }}
\@writefile{lot}{\addvspace {10\p@ }}
\newlabel{ch-09}{{9}{91}{How Do You Explain The Weightlessness Of Bodies?}{chapter.9}{}}
\newlabel{eq-46}{{46}{92}{How Do You Explain The Weightlessness Of Bodies?}{equation.9.0.46}{}}
\newlabel{eq-47}{{47}{94}{How Do You Explain The Weightlessness Of Bodies?}{equation.9.0.47}{}}
\@writefile{lof}{\contentsline {figure}{\numberline {42}{\ignorespaces Trajectory of a body around Earth with different initial velocities.}}{94}{equation.9.0.47}\protected@file@percent }
\newlabel{fig-42}{{42}{94}{How Do You Explain The Weightlessness Of Bodies?}{equation.9.0.47}{}}
\newlabel{problems-09}{{9}{95}{}{equation.9.0.47}{}}
\@writefile{toc}{\contentsline {section}{Problems}{95}{equation.9.0.47}\protected@file@percent }
\newpmemlabel{^_35}{97}
\@writefile{toc}{\contentsline {chapter}{\numberline {10}Can You Apply The Laws Of Conservation Of Energy And Linear Momentum?}{99}{chapter.10}\protected@file@percent }
\@writefile{lof}{\addvspace {10\p@ }}
\@writefile{lot}{\addvspace {10\p@ }}
\newlabel{ch-10}{{10}{99}{Can You Apply The Laws Of Conservation Of Energy And Linear Momentum?}{chapter.10}{}}
\newlabel{eq-48}{{48}{100}{Can You Apply The Laws Of Conservation Of Energy And Linear Momentum?}{equation.10.0.48}{}}
\newlabel{eq-49}{{49}{101}{Can You Apply The Laws Of Conservation Of Energy And Linear Momentum?}{equation.10.0.49}{}}
\@writefile{lof}{\contentsline {figure}{\numberline {43}{\ignorespaces Problem with potential energy of a liquid column in a communicating vessel.}}{105}{Item.57}\protected@file@percent }
\newlabel{fig-43}{{43}{105}{Can You Apply The Laws Of Conservation Of Energy And Linear Momentum?}{Item.57}{}}
\newpmemlabel{^_36}{107}
\@writefile{lof}{\contentsline {figure}{\numberline {44}{\ignorespaces A bullet hits a block of wood and sticks in it. The problem is to find the height to which the block will rise after the impact.}}{107}{Item.57}\protected@file@percent }
\newlabel{fig-44}{{44}{107}{Can You Apply The Laws Of Conservation Of Energy And Linear Momentum?}{Item.57}{}}
\newlabel{eq-50}{{50}{107}{Can You Apply The Laws Of Conservation Of Energy And Linear Momentum?}{equation.10.0.50}{}}
\newlabel{eq-51}{{51}{107}{Can You Apply The Laws Of Conservation Of Energy And Linear Momentum?}{equation.10.0.51}{}}
\newlabel{eq-52}{{52}{107}{Can You Apply The Laws Of Conservation Of Energy And Linear Momentum?}{equation.10.0.52}{}}
\newlabel{eq-53}{{53}{107}{Can You Apply The Laws Of Conservation Of Energy And Linear Momentum?}{equation.10.0.53}{}}
\newlabel{eq-54}{{54}{108}{Can You Apply The Laws Of Conservation Of Energy And Linear Momentum?}{equation.10.0.54}{}}
\newlabel{eq-55}{{55}{108}{Can You Apply The Laws Of Conservation Of Energy And Linear Momentum?}{equation.10.0.55}{}}
\newlabel{eq-56}{{56}{108}{Can You Apply The Laws Of Conservation Of Energy And Linear Momentum?}{equation.10.0.56}{}}
\newlabel{eq-57}{{57}{109}{Can You Apply The Laws Of Conservation Of Energy And Linear Momentum?}{equation.10.0.57}{}}
\newlabel{eq-58}{{58}{109}{Can You Apply The Laws Of Conservation Of Energy And Linear Momentum?}{equation.10.0.58}{}}
\newlabel{eq-59}{{59}{110}{Can You Apply The Laws Of Conservation Of Energy And Linear Momentum?}{equation.10.0.59}{}}
\newpmemlabel{^_37}{112}
\@writefile{lof}{\contentsline {figure}{\numberline {45}{\ignorespaces A ball collides with another body at rest in the form of an inclined plane. The problem is to find the velocity of the ball after the impact.}}{112}{equation.10.0.59}\protected@file@percent }
\newlabel{fig-45}{{45}{112}{Can You Apply The Laws Of Conservation Of Energy And Linear Momentum?}{equation.10.0.59}{}}
\newlabel{eq-60}{{60}{112}{Can You Apply The Laws Of Conservation Of Energy And Linear Momentum?}{equation.10.0.60}{}}
\newlabel{eq-61}{{61}{112}{Can You Apply The Laws Of Conservation Of Energy And Linear Momentum?}{equation.10.0.61}{}}
\newlabel{eq-62}{{62}{113}{Can You Apply The Laws Of Conservation Of Energy And Linear Momentum?}{equation.10.0.62}{}}
\newlabel{eq-63}{{63}{114}{Can You Apply The Laws Of Conservation Of Energy And Linear Momentum?}{equation.10.0.63}{}}
\newlabel{eq-64}{{64}{114}{Can You Apply The Laws Of Conservation Of Energy And Linear Momentum?}{equation.10.0.64}{}}
\newlabel{prob-10}{{10}{115}{}{equation.10.0.64}{}}
\@writefile{toc}{\contentsline {section}{Problems}{115}{equation.10.0.64}\protected@file@percent }
\@writefile{lof}{\contentsline {figure}{\numberline {46}{\ignorespaces A ball strikes one of the two edges after being dropped from a height. First it strikes the second wedge and then goes vertically up. The problem is to find the height to which the ball rises.}}{116}{Item.68}\protected@file@percent }
\newlabel{fig-46}{{46}{116}{}{Item.68}{}}
\newpmemlabel{^_38}{117}
\@writefile{toc}{\contentsline {chapter}{\numberline {11}Can You Deal With Harmonic Vibrations?}{119}{chapter.11}\protected@file@percent }
\@writefile{lof}{\addvspace {10\p@ }}
\@writefile{lot}{\addvspace {10\p@ }}
\newlabel{ch-11}{{11}{119}{Can You Deal With Harmonic Vibrations?}{chapter.11}{}}
\newlabel{eq-65}{{65}{119}{Can You Deal With Harmonic Vibrations?}{equation.11.0.65}{}}
\@writefile{lof}{\contentsline {figure}{\numberline {47}{\ignorespaces Simple harmonic motion and its relations.}}{119}{equation.11.0.65}\protected@file@percent }
\newlabel{fig-47}{{47}{119}{Can You Deal With Harmonic Vibrations?}{equation.11.0.65}{}}
\newlabel{eq-66}{{66}{119}{Can You Deal With Harmonic Vibrations?}{equation.11.0.66}{}}
\newpmemlabel{^_39}{121}
\@writefile{lof}{\contentsline {figure}{\numberline {48}{\ignorespaces Simple harmonic motion and its relations.}}{122}{equation.11.0.66}\protected@file@percent }
\newlabel{fig-48}{{48}{122}{Can You Deal With Harmonic Vibrations?}{equation.11.0.66}{}}
\newlabel{eq-67}{{67}{122}{Can You Deal With Harmonic Vibrations?}{equation.11.0.67}{}}
\newlabel{eq-68}{{68}{122}{Can You Deal With Harmonic Vibrations?}{equation.11.0.68}{}}
\newpmemlabel{^_40}{122}
\@writefile{lof}{\contentsline {figure}{\numberline {49}{\ignorespaces Force varying with distance.}}{122}{equation.11.0.68}\protected@file@percent }
\newlabel{fig-49}{{49}{122}{Can You Deal With Harmonic Vibrations?}{equation.11.0.68}{}}
\newlabel{eq-69}{{69}{123}{Can You Deal With Harmonic Vibrations?}{equation.11.0.69}{}}
\newlabel{eq-70}{{70}{123}{Can You Deal With Harmonic Vibrations?}{equation.11.0.70}{}}
\newlabel{eq-71}{{71}{123}{Can You Deal With Harmonic Vibrations?}{equation.11.0.71}{}}
\newlabel{eq-72}{{72}{123}{Can You Deal With Harmonic Vibrations?}{equation.11.0.72}{}}
\newpmemlabel{^_41}{124}
\@writefile{lof}{\contentsline {figure}{\numberline {50}{\ignorespaces Analysing the motion of a pendulum.}}{124}{equation.11.0.72}\protected@file@percent }
\newlabel{fig-50}{{50}{124}{Can You Deal With Harmonic Vibrations?}{equation.11.0.72}{}}
\newlabel{eq-73}{{73}{125}{Can You Deal With Harmonic Vibrations?}{equation.11.0.73}{}}
\newlabel{eq-66a}{{{66a}}{125}{Can You Deal With Harmonic Vibrations?}{equation.11.0.74}{}}
\newlabel{eq-74}{{74}{125}{Can You Deal With Harmonic Vibrations?}{equation.11.0.74}{}}
\newlabel{eq-75}{{75}{125}{Can You Deal With Harmonic Vibrations?}{equation.11.0.75}{}}
\newlabel{eq-76}{{76}{125}{Can You Deal With Harmonic Vibrations?}{equation.11.0.76}{}}
\newlabel{prob-11}{{11}{126}{}{equation.11.0.76}{}}
\@writefile{toc}{\contentsline {section}{Problems}{126}{equation.11.0.76}\protected@file@percent }
\@writefile{toc}{\contentsline {chapter}{\numberline {12}What Happens To A Pendulum In A State Of Weightlessness?}{127}{chapter.12}\protected@file@percent }
\@writefile{lof}{\addvspace {10\p@ }}
\@writefile{lot}{\addvspace {10\p@ }}
\newlabel{ch-12}{{12}{127}{What Happens To A Pendulum In A State Of Weightlessness?}{chapter.12}{}}
\newlabel{eq-77}{{77}{127}{What Happens To A Pendulum In A State Of Weightlessness?}{equation.12.0.77}{}}
\newlabel{eq-78}{{78}{128}{What Happens To A Pendulum In A State Of Weightlessness?}{equation.12.0.78}{}}
\@writefile{lof}{\contentsline {figure}{\numberline {51}{\ignorespaces Anaysing the motion of a pendulum in a spaceship.}}{129}{Item.74}\protected@file@percent }
\newlabel{fig-51}{{51}{129}{What Happens To A Pendulum In A State Of Weightlessness?}{Item.74}{}}
\@writefile{lof}{\contentsline {figure}{\numberline {52}{\ignorespaces Anaysing the motion of a pendulum moving with an accelerated frame at an angle to earth's gravity.}}{130}{Item.74}\protected@file@percent }
\newlabel{fig-52}{{52}{130}{What Happens To A Pendulum In A State Of Weightlessness?}{Item.74}{}}
\newlabel{eq-79}{{79}{130}{What Happens To A Pendulum In A State Of Weightlessness?}{equation.12.0.79}{}}
\newlabel{80}{{80}{130}{What Happens To A Pendulum In A State Of Weightlessness?}{equation.12.0.80}{}}
\@writefile{lof}{\contentsline {figure}{\numberline {53}{\ignorespaces Anaysing the motion of a pendulum.}}{131}{equation.12.0.80}\protected@file@percent }
\newlabel{fig-53}{{53}{131}{What Happens To A Pendulum In A State Of Weightlessness?}{equation.12.0.80}{}}
\newlabel{eq-81}{{81}{131}{What Happens To A Pendulum In A State Of Weightlessness?}{equation.12.0.81}{}}
\newpmemlabel{^_42}{133}
\@writefile{toc}{\contentsline {chapter}{\numberline {13}Can You Use The Force Resolution Method Efficiently?}{135}{chapter.13}\protected@file@percent }
\@writefile{lof}{\addvspace {10\p@ }}
\@writefile{lot}{\addvspace {10\p@ }}
\newlabel{ch-13}{{13}{135}{Can You Use The Force Resolution Method Efficiently?}{chapter.13}{}}
\@writefile{lof}{\contentsline {figure}{\numberline {54}{\ignorespaces Illustration for resolution of forces resulting in a parallelogram.}}{135}{chapter.13}\protected@file@percent }
\newlabel{fig-54}{{54}{135}{Can You Use The Force Resolution Method Efficiently?}{chapter.13}{}}
\@writefile{lof}{\contentsline {figure}{\numberline {55}{\ignorespaces Anaysing the motion of a pendulum.}}{135}{chapter.13}\protected@file@percent }
\newlabel{fig-55}{{55}{135}{Can You Use The Force Resolution Method Efficiently?}{chapter.13}{}}
\@writefile{lof}{\contentsline {figure}{\numberline {56}{\ignorespaces Anaysing the motion of a pendulum.}}{137}{chapter.13}\protected@file@percent }
\newlabel{fig-56}{{56}{137}{Can You Use The Force Resolution Method Efficiently?}{chapter.13}{}}
\@writefile{lof}{\contentsline {figure}{\numberline {57}{\ignorespaces Anaysing the motion of a pendulum.}}{137}{chapter.13}\protected@file@percent }
\newlabel{fig-57}{{57}{137}{Can You Use The Force Resolution Method Efficiently?}{chapter.13}{}}
\newlabel{prob-13}{{13}{138}{}{chapter.13}{}}
\@writefile{toc}{\contentsline {section}{Problems}{138}{section*.3}\protected@file@percent }
\@writefile{lof}{\contentsline {figure}{\numberline {58}{\ignorespaces Anaysing the motion of a pendulum, Problem 36.}}{139}{Item.76}\protected@file@percent }
\newlabel{fig-58}{{58}{139}{}{Item.76}{}}
\@writefile{toc}{\contentsline {chapter}{\numberline {14}What Do You Know About The Equilibrium Of Bodies?}{141}{chapter.14}\protected@file@percent }
\@writefile{lof}{\addvspace {10\p@ }}
\@writefile{lot}{\addvspace {10\p@ }}
\newlabel{ch-14}{{14}{141}{What Do You Know About The Equilibrium Of Bodies?}{chapter.14}{}}
\@writefile{lof}{\contentsline {figure}{\numberline {59}{\ignorespaces Which brick is more stable?}}{141}{chapter.14}\protected@file@percent }
\newlabel{fig-59}{{59}{141}{What Do You Know About The Equilibrium Of Bodies?}{chapter.14}{}}
\newpmemlabel{^_43}{142}
\@writefile{lof}{\contentsline {figure}{\numberline {60}{\ignorespaces Comparing equilibrium of two bodies, which is more stable?}}{142}{chapter.14}\protected@file@percent }
\newlabel{fig-60}{{60}{142}{What Do You Know About The Equilibrium Of Bodies?}{chapter.14}{}}
\newlabel{eq-82}{{82}{143}{What Do You Know About The Equilibrium Of Bodies?}{equation.14.0.82}{}}
\@writefile{lof}{\contentsline {figure}{\numberline {61}{\ignorespaces Trajectory described by the centre of gravity of a brick when turning over.}}{143}{equation.14.0.82}\protected@file@percent }
\newlabel{fig-61}{{61}{143}{What Do You Know About The Equilibrium Of Bodies?}{equation.14.0.82}{}}
\newpmemlabel{^_44}{145}
\@writefile{lof}{\contentsline {figure}{\numberline {62}{\ignorespaces A beam with suspended loads, the problem is to find the reactions of the supports.}}{146}{Item.82}\protected@file@percent }
\newlabel{fig-62}{{62}{146}{What Do You Know About The Equilibrium Of Bodies?}{Item.82}{}}
\newlabel{eq-83}{{83}{147}{What Do You Know About The Equilibrium Of Bodies?}{equation.14.0.83}{}}
\newlabel{eq-84}{{84}{147}{What Do You Know About The Equilibrium Of Bodies?}{equation.14.0.84}{}}
\newlabel{eq-85}{{85}{147}{What Do You Know About The Equilibrium Of Bodies?}{equation.14.0.85}{}}
\@writefile{toc}{\contentsline {chapter}{\numberline {15}How Do You Locate The Centre Of Gravity? }{149}{chapter.15}\protected@file@percent }
\@writefile{lof}{\addvspace {10\p@ }}
\@writefile{lot}{\addvspace {10\p@ }}
\newlabel{ch-15}{{15}{149}{How Do You Locate The Centre Of Gravity?}{chapter.15}{}}
\newpmemlabel{^_45}{149}
\@writefile{lof}{\contentsline {figure}{\numberline {63}{\ignorespaces Problem is to find the centre of gravity of the given body.}}{149}{chapter.15}\protected@file@percent }
\newlabel{fig-63}{{63}{149}{How Do You Locate The Centre Of Gravity?}{chapter.15}{}}
\newpmemlabel{^_46}{151}
\@writefile{lof}{\contentsline {figure}{\numberline {64}{\ignorespaces Problem is to find the centre of gravity of the given body.}}{151}{chapter.15}\protected@file@percent }
\newlabel{fig-64}{{64}{151}{How Do You Locate The Centre Of Gravity?}{chapter.15}{}}
\newpmemlabel{^_47}{152}
\@writefile{lof}{\contentsline {figure}{\numberline {65}{\ignorespaces Problem is to find the centre of gravity of the bodies in the given configuration.}}{153}{chapter.15}\protected@file@percent }
\newlabel{fig-65}{{65}{153}{How Do You Locate The Centre Of Gravity?}{chapter.15}{}}
\newlabel{eq-86}{{86}{154}{How Do You Locate The Centre Of Gravity?}{equation.15.0.86}{}}
\newlabel{eq-87}{{87}{154}{How Do You Locate The Centre Of Gravity?}{equation.15.0.87}{}}
\newlabel{eq-88}{{88}{154}{How Do You Locate The Centre Of Gravity?}{equation.15.0.88}{}}
\newlabel{eq-89}{{89}{154}{How Do You Locate The Centre Of Gravity?}{equation.15.0.89}{}}
\newlabel{prob-15}{{15}{155}{}{equation.15.0.89}{}}
\@writefile{toc}{\contentsline {section}{Problems}{155}{equation.15.0.89}\protected@file@percent }
\newpmemlabel{^_48}{155}
\@writefile{lof}{\contentsline {figure}{\numberline {66}{\ignorespaces Problem is to find the centre of gravity of the given body.}}{155}{Item.83}\protected@file@percent }
\newlabel{fig-66}{{66}{155}{}{Item.83}{}}
\newpmemlabel{^_49}{157}
\@writefile{toc}{\contentsline {chapter}{\numberline {16}Do you know Archimedes' principle?}{159}{chapter.16}\protected@file@percent }
\@writefile{lof}{\addvspace {10\p@ }}
\@writefile{lot}{\addvspace {10\p@ }}
\newlabel{ch-16}{{16}{159}{Do you know Archimedes' principle?}{chapter.16}{}}
\newpmemlabel{^_50}{160}
\@writefile{lof}{\contentsline {figure}{\numberline {67}{\ignorespaces Buoyant force for Archimedes' principle.}}{160}{chapter.16}\protected@file@percent }
\newlabel{fig-67}{{67}{160}{Do you know Archimedes' principle?}{chapter.16}{}}
\newlabel{eq-90}{{90}{161}{Do you know Archimedes' principle?}{equation.16.0.90}{}}
\newlabel{eq-91}{{91}{161}{Do you know Archimedes' principle?}{equation.16.0.91}{}}
\newlabel{eq-92}{{92}{162}{Do you know Archimedes' principle?}{equation.16.0.92}{}}
\newlabel{eq-93}{{93}{162}{Do you know Archimedes' principle?}{equation.16.0.93}{}}
\newlabel{eq-94}{{94}{163}{Do you know Archimedes' principle?}{equation.16.0.94}{}}
\newlabel{eq-95}{{95}{163}{Do you know Archimedes' principle?}{equation.16.0.95}{}}
\newpmemlabel{^_51}{164}
\@writefile{lof}{\contentsline {figure}{\numberline {68}{\ignorespaces What additional weight must be put on the pan with the stand to restore equilibrium?}}{164}{equation.16.0.95}\protected@file@percent }
\newlabel{fig-68}{{68}{164}{Do you know Archimedes' principle?}{equation.16.0.95}{}}
\newlabel{prob-16}{{16}{165}{}{equation.16.0.95}{}}
\@writefile{toc}{\contentsline {section}{Problems}{165}{equation.16.0.95}\protected@file@percent }
\@writefile{toc}{\contentsline {chapter}{\numberline {17}Is Archimedes' Principle Valid In A Spaceship?}{167}{chapter.17}\protected@file@percent }
\@writefile{lof}{\addvspace {10\p@ }}
\@writefile{lot}{\addvspace {10\p@ }}
\newlabel{ch-17}{{17}{167}{Is Archimedes' Principle Valid In A Spaceship?}{chapter.17}{}}
\newlabel{eq-96}{{96}{168}{Is Archimedes' Principle Valid In A Spaceship?}{equation.17.0.96}{}}
\newlabel{eq-97}{{97}{168}{Is Archimedes' Principle Valid In A Spaceship?}{equation.17.0.97}{}}
\newpmemlabel{^_52}{171}
\@writefile{toc}{\contentsline {chapter}{\numberline {18}What Do You Know About The Molecular-Kinetic Theory Of Matter?}{173}{chapter.18}\protected@file@percent }
\@writefile{lof}{\addvspace {10\p@ }}
\@writefile{lot}{\addvspace {10\p@ }}
\newlabel{ch-18}{{18}{173}{What Do You Know About The Molecular-Kinetic Theory Of Matter?}{chapter.18}{}}
\newlabel{eq-98}{{98}{174}{What Do You Know About The Molecular-Kinetic Theory Of Matter?}{equation.18.0.98}{}}
\newlabel{eq-99}{{99}{174}{What Do You Know About The Molecular-Kinetic Theory Of Matter?}{equation.18.0.99}{}}
\@writefile{lof}{\contentsline {figure}{\numberline {69}{\ignorespaces Dependence of the potential energy $E_{p}$ of interaction of the molecules on the distance $r$ between their centres.}}{175}{equation.18.0.99}\protected@file@percent }
\newlabel{fig-69}{{69}{175}{What Do You Know About The Molecular-Kinetic Theory Of Matter?}{equation.18.0.99}{}}
\newpmemlabel{^_53}{179}
\@writefile{lof}{\contentsline {figure}{\numberline {70}{\ignorespaces Long range order of crystals and short range order of liquids.}}{179}{equation.18.0.99}\protected@file@percent }
\newlabel{fig-70}{{70}{179}{What Do You Know About The Molecular-Kinetic Theory Of Matter?}{equation.18.0.99}{}}
\newpmemlabel{^_54}{180}
\@writefile{lof}{\contentsline {figure}{\numberline {71}{\ignorespaces Effect of surface and volume relationships.}}{181}{equation.18.0.99}\protected@file@percent }
\newlabel{fig-71}{{71}{181}{What Do You Know About The Molecular-Kinetic Theory Of Matter?}{equation.18.0.99}{}}
\newlabel{eq-100}{{100}{182}{What Do You Know About The Molecular-Kinetic Theory Of Matter?}{equation.18.0.100}{}}
\newlabel{eq-101}{{101}{182}{What Do You Know About The Molecular-Kinetic Theory Of Matter?}{equation.18.0.101}{}}
\newlabel{eq-102}{{102}{182}{What Do You Know About The Molecular-Kinetic Theory Of Matter?}{equation.18.0.102}{}}
\@writefile{toc}{\contentsline {chapter}{\numberline {19}How Do You Account For The Peculiarity In The Thermal Expansion Of Water?}{187}{chapter.19}\protected@file@percent }
\@writefile{lof}{\addvspace {10\p@ }}
\@writefile{lot}{\addvspace {10\p@ }}
\newlabel{ch-19}{{19}{187}{How Do You Account For The Peculiarity In The Thermal Expansion Of Water?}{chapter.19}{}}
\@writefile{lof}{\contentsline {figure}{\numberline {72}{\ignorespaces Explaining peculiarity of thermal expansion of water.}}{187}{chapter.19}\protected@file@percent }
\newlabel{fig-72}{{72}{187}{How Do You Account For The Peculiarity In The Thermal Expansion Of Water?}{chapter.19}{}}
\@writefile{toc}{\contentsline {chapter}{\numberline {20}How Well Do You Know The Gas Laws?}{189}{chapter.20}\protected@file@percent }
\@writefile{lof}{\addvspace {10\p@ }}
\@writefile{lot}{\addvspace {10\p@ }}
\newlabel{ch-20}{{20}{189}{How Well Do You Know The Gas Laws?}{chapter.20}{}}
\newlabel{eq-103}{{103}{189}{How Well Do You Know The Gas Laws?}{equation.20.0.103}{}}
\newlabel{eq-104}{{104}{189}{How Well Do You Know The Gas Laws?}{equation.20.0.104}{}}
\newlabel{eq-105}{{105}{190}{How Well Do You Know The Gas Laws?}{equation.20.0.105}{}}
\newlabel{eq-106}{{106}{190}{How Well Do You Know The Gas Laws?}{equation.20.0.106}{}}
\newpmemlabel{^_55}{191}
\@writefile{lof}{\contentsline {figure}{\numberline {73}{\ignorespaces The Gas Laws.}}{191}{equation.20.0.106}\protected@file@percent }
\newlabel{fig-73}{{73}{191}{How Well Do You Know The Gas Laws?}{equation.20.0.106}{}}
\@writefile{lof}{\contentsline {figure}{\numberline {74}{\ignorespaces Which pressure is higher?}}{192}{equation.20.0.106}\protected@file@percent }
\newlabel{fig-74}{{74}{192}{How Well Do You Know The Gas Laws?}{equation.20.0.106}{}}
\@writefile{lof}{\contentsline {figure}{\numberline {75}{\ignorespaces Which pressure is higher?}}{193}{equation.20.0.106}\protected@file@percent }
\newlabel{fig-75}{{75}{193}{How Well Do You Know The Gas Laws?}{equation.20.0.106}{}}
\newlabel{eq-107}{{107}{193}{How Well Do You Know The Gas Laws?}{equation.20.0.107}{}}
\newlabel{eq-108}{{108}{194}{How Well Do You Know The Gas Laws?}{equation.20.0.108}{}}
\newlabel{eq-109}{{109}{194}{How Well Do You Know The Gas Laws?}{equation.20.0.109}{}}
\newlabel{107a}{{{107a}}{194}{How Well Do You Know The Gas Laws?}{Item.93}{}}
\newlabel{108a}{{{108a}}{194}{How Well Do You Know The Gas Laws?}{Item.93}{}}
\newlabel{109a}{{{109a}}{194}{How Well Do You Know The Gas Laws?}{Item.93}{}}
\newlabel{eq-110}{{110}{195}{How Well Do You Know The Gas Laws?}{equation.20.0.110}{}}
\@writefile{lof}{\contentsline {figure}{\numberline {76}{\ignorespaces Comparing the isochores for $p \propto \genfrac  {}{}{}0{1}{V^{2}}$ and $p \propto \genfrac  {}{}{}0{1}{V}$.}}{195}{equation.20.0.110}\protected@file@percent }
\newlabel{fig-76}{{76}{195}{How Well Do You Know The Gas Laws?}{equation.20.0.110}{}}
\newlabel{eq-111}{{111}{196}{How Well Do You Know The Gas Laws?}{equation.20.0.111}{}}
\@writefile{lof}{\contentsline {figure}{\numberline {77}{\ignorespaces Work done by a gas.}}{196}{equation.20.0.111}\protected@file@percent }
\newlabel{fig-77}{{77}{196}{How Well Do You Know The Gas Laws?}{equation.20.0.111}{}}
\newlabel{eq-112}{{112}{196}{How Well Do You Know The Gas Laws?}{equation.20.0.112}{}}
\@writefile{lof}{\contentsline {figure}{\numberline {78}{\ignorespaces Work done by a gas.}}{197}{equation.20.0.112}\protected@file@percent }
\newlabel{fig-78}{{78}{197}{How Well Do You Know The Gas Laws?}{equation.20.0.112}{}}
\newlabel{eq-113}{{113}{197}{How Well Do You Know The Gas Laws?}{equation.20.0.113}{}}
\newlabel{114}{{114}{198}{How Well Do You Know The Gas Laws?}{equation.20.0.114}{}}
\newlabel{eq-115}{{115}{199}{How Well Do You Know The Gas Laws?}{equation.20.0.115}{}}
\newlabel{eq-116}{{116}{199}{How Well Do You Know The Gas Laws?}{equation.20.0.116}{}}
\newlabel{eq-117}{{117}{199}{How Well Do You Know The Gas Laws?}{equation.20.0.117}{}}
\newlabel{eq-118}{{118}{200}{How Well Do You Know The Gas Laws?}{equation.20.0.118}{}}
\@writefile{lof}{\contentsline {figure}{\numberline {79}{\ignorespaces Work done by a gas.}}{200}{equation.20.0.118}\protected@file@percent }
\newlabel{fig-79}{{79}{200}{How Well Do You Know The Gas Laws?}{equation.20.0.118}{}}
\@writefile{toc}{\contentsline {chapter}{\numberline {21}How Do You Go About Solving Problems On Gas Laws?}{203}{chapter.21}\protected@file@percent }
\@writefile{lof}{\addvspace {10\p@ }}
\@writefile{lot}{\addvspace {10\p@ }}
\newlabel{ch-21}{{21}{203}{How Do You Go About Solving Problems On Gas Laws?}{chapter.21}{}}
\newlabel{119}{{119}{203}{How Do You Go About Solving Problems On Gas Laws?}{equation.21.0.119}{}}
\newlabel{eq-120}{{120}{204}{How Do You Go About Solving Problems On Gas Laws?}{equation.21.0.120}{}}
\@writefile{lof}{\contentsline {figure}{\numberline {80}{\ignorespaces Work done by a gas.}}{205}{equation.21.0.120}\protected@file@percent }
\newlabel{fig-80}{{80}{205}{How Do You Go About Solving Problems On Gas Laws?}{equation.21.0.120}{}}
\newlabel{eq-121}{{121}{205}{How Do You Go About Solving Problems On Gas Laws?}{equation.21.0.121}{}}
\newlabel{eq-122}{{122}{206}{How Do You Go About Solving Problems On Gas Laws?}{equation.21.0.122}{}}
\newlabel{eq-123}{{123}{206}{How Do You Go About Solving Problems On Gas Laws?}{equation.21.0.123}{}}
\newlabel{eq-124}{{124}{206}{How Do You Go About Solving Problems On Gas Laws?}{equation.21.0.124}{}}
\@writefile{lof}{\contentsline {figure}{\numberline {81}{\ignorespaces Work done by a gas.}}{208}{equation.21.0.124}\protected@file@percent }
\newlabel{fig-81}{{81}{208}{How Do You Go About Solving Problems On Gas Laws?}{equation.21.0.124}{}}
\@writefile{lof}{\contentsline {figure}{\numberline {82}{\ignorespaces Work done by a gas.}}{209}{Item.95}\protected@file@percent }
\newlabel{fig-82}{{82}{209}{How Do You Go About Solving Problems On Gas Laws?}{Item.95}{}}
\newlabel{eq-125}{{125}{210}{How Do You Go About Solving Problems On Gas Laws?}{equation.21.0.125}{}}
\newlabel{eq-126}{{126}{211}{How Do You Go About Solving Problems On Gas Laws?}{equation.21.0.126}{}}
\newlabel{prob-21}{{21}{211}{}{equation.21.0.126}{}}
\@writefile{toc}{\contentsline {section}{Problems}{211}{equation.21.0.126}\protected@file@percent }
\@writefile{lof}{\contentsline {figure}{\numberline {83}{\ignorespaces A glass tube with sealed end submerged in a vessel with mercury.}}{211}{equation.21.0.126}\protected@file@percent }
\newlabel{fig-83}{{83}{211}{}{equation.21.0.126}{}}
\@writefile{lof}{\contentsline {figure}{\numberline {84}{\ignorespaces A glass tube with sealed end submerged in a vessel with mercury.}}{211}{Item.97}\protected@file@percent }
\newlabel{fig-84}{{84}{211}{}{Item.97}{}}
\@writefile{lof}{\contentsline {figure}{\numberline {85}{\ignorespaces Work done by a gas.}}{211}{Item.101}\protected@file@percent }
\newlabel{fig-85}{{85}{211}{}{Item.101}{}}
\newpmemlabel{^_56}{213}
\@writefile{toc}{\contentsline {chapter}{\numberline {22}Let Us Discuss Field Theory}{215}{chapter.22}\protected@file@percent }
\@writefile{lof}{\addvspace {10\p@ }}
\@writefile{lot}{\addvspace {10\p@ }}
\newlabel{ch-22}{{22}{215}{Let Us Discuss Field Theory}{chapter.22}{}}
\@writefile{toc}{\contentsline {chapter}{\numberline {23}How Is An Electrostatic Field Described?}{221}{chapter.23}\protected@file@percent }
\@writefile{lof}{\addvspace {10\p@ }}
\@writefile{lot}{\addvspace {10\p@ }}
\newlabel{ch-23}{{23}{221}{How Is An Electrostatic Field Described?}{chapter.23}{}}
\@writefile{toc}{\contentsline {paragraph}{}{221}{paragraph*.4}\protected@file@percent }
\newlabel{eq-127}{{127}{221}{}{equation.23.0.127}{}}
\newlabel{eq-128}{{128}{221}{}{equation.23.0.128}{}}
\newlabel{eq-129}{{129}{221}{}{equation.23.0.129}{}}
\newlabel{eq-130}{{130}{222}{}{equation.23.0.130}{}}
\newlabel{eq-131}{{131}{223}{}{equation.23.0.131}{}}
\newpmemlabel{^_57}{223}
\@writefile{lof}{\contentsline {figure}{\numberline {86}{\ignorespaces Lines of force looks like for a field set up by two point charges of equal magnitude.}}{223}{equation.23.0.131}\protected@file@percent }
\newlabel{fig-86}{{86}{223}{}{equation.23.0.131}{}}
\@writefile{lof}{\contentsline {figure}{\numberline {87}{\ignorespaces Lines of force looks like for a field set up by two point charges of equal magnitude.}}{224}{equation.23.0.131}\protected@file@percent }
\newlabel{fig-88}{{87}{224}{}{equation.23.0.131}{}}
\newpmemlabel{^_58}{224}
\@writefile{lof}{\contentsline {figure}{\numberline {88}{\ignorespaces Lines of force looks like for a field set up by two point charges of equal magnitude.}}{224}{equation.23.0.131}\protected@file@percent }
\newlabel{fig-87}{{88}{224}{}{equation.23.0.131}{}}
\@writefile{lof}{\contentsline {figure}{\numberline {89}{\ignorespaces Work done in an electrostatic field.}}{226}{equation.23.0.131}\protected@file@percent }
\newlabel{fig-89}{{89}{226}{}{equation.23.0.131}{}}
\newlabel{eq-132}{{132}{226}{}{equation.23.0.132}{}}
\newlabel{eq-133}{{133}{226}{}{equation.23.0.133}{}}
\newlabel{eq-134}{{134}{227}{}{equation.23.0.134}{}}
\newlabel{eq-135}{{135}{227}{}{equation.23.0.135}{}}
\@writefile{lof}{\contentsline {figure}{\numberline {90}{\ignorespaces Proving that lines of force and equipotential surface are mutually perpendicular.}}{228}{equation.23.0.135}\protected@file@percent }
\newlabel{fig-90}{{90}{228}{}{equation.23.0.135}{}}
\newlabel{eq-136}{{136}{228}{}{equation.23.0.136}{}}
\newlabel{eq-137}{{137}{228}{}{equation.23.0.137}{}}
\newlabel{eq-138}{{138}{228}{}{equation.23.0.138}{}}
\newpmemlabel{^_59}{229}
\@writefile{lof}{\contentsline {figure}{\numberline {91}{\ignorespaces Crosssections of equipotential surfaces and lines of force.}}{229}{equation.23.0.138}\protected@file@percent }
\newlabel{fig-91}{{91}{229}{}{equation.23.0.138}{}}
\@writefile{toc}{\contentsline {chapter}{\numberline {24}How Do Lines Of Force Behave Near The Surface Of A Conductor?}{231}{chapter.24}\protected@file@percent }
\@writefile{lof}{\addvspace {10\p@ }}
\@writefile{lot}{\addvspace {10\p@ }}
\newlabel{ch-24}{{24}{231}{How Do Lines Of Force Behave Near The Surface Of A Conductor?}{chapter.24}{}}
\newpmemlabel{^_60}{233}
\@writefile{lof}{\contentsline {figure}{\numberline {92}{\ignorespaces Lines of force.}}{233}{chapter.24}\protected@file@percent }
\newlabel{fig-92}{{92}{233}{How Do Lines Of Force Behave Near The Surface Of A Conductor?}{chapter.24}{}}
\newpmemlabel{^_61}{233}
\@writefile{lof}{\contentsline {figure}{\numberline {93}{\ignorespaces Lines of force.}}{234}{chapter.24}\protected@file@percent }
\newlabel{fig-93}{{93}{234}{How Do Lines Of Force Behave Near The Surface Of A Conductor?}{chapter.24}{}}
\@writefile{toc}{\contentsline {chapter}{\numberline {25}How Do You Deal With Motion In A Uniform Electrostatic Field?}{237}{chapter.25}\protected@file@percent }
\@writefile{lof}{\addvspace {10\p@ }}
\@writefile{lot}{\addvspace {10\p@ }}
\newlabel{ch-25}{{25}{237}{How Do You Deal With Motion In A Uniform Electrostatic Field?}{chapter.25}{}}
\newpmemlabel{^_62}{238}
\@writefile{lof}{\contentsline {figure}{\numberline {94}{\ignorespaces Lines of force of two fields in which a body travels.}}{238}{chapter.25}\protected@file@percent }
\newlabel{fig-94}{{94}{238}{How Do You Deal With Motion In A Uniform Electrostatic Field?}{chapter.25}{}}
\newlabel{139}{{139}{239}{How Do You Deal With Motion In A Uniform Electrostatic Field?}{equation.25.0.139}{}}
\newlabel{eq-140}{{140}{239}{How Do You Deal With Motion In A Uniform Electrostatic Field?}{equation.25.0.140}{}}
\newlabel{eq-141}{{141}{239}{How Do You Deal With Motion In A Uniform Electrostatic Field?}{equation.25.0.141}{}}
\newlabel{eq-142}{{142}{239}{How Do You Deal With Motion In A Uniform Electrostatic Field?}{equation.25.0.142}{}}
\newlabel{eq-143}{{143}{240}{How Do You Deal With Motion In A Uniform Electrostatic Field?}{equation.25.0.143}{}}
\newlabel{eq-144}{{144}{240}{How Do You Deal With Motion In A Uniform Electrostatic Field?}{equation.25.0.144}{}}
\newlabel{eq-145}{{145}{240}{How Do You Deal With Motion In A Uniform Electrostatic Field?}{equation.25.0.145}{}}
\newlabel{eq-146}{{146}{240}{How Do You Deal With Motion In A Uniform Electrostatic Field?}{equation.25.0.146}{}}
\newpmemlabel{^_63}{241}
\@writefile{lof}{\contentsline {figure}{\numberline {95}{\ignorespaces Electron in a parallel plate capacitor.}}{241}{equation.25.0.146}\protected@file@percent }
\newlabel{fig-95}{{95}{241}{How Do You Deal With Motion In A Uniform Electrostatic Field?}{equation.25.0.146}{}}
\newlabel{eq-147}{{147}{242}{How Do You Deal With Motion In A Uniform Electrostatic Field?}{equation.25.0.147}{}}
\newlabel{eq-148}{{148}{242}{How Do You Deal With Motion In A Uniform Electrostatic Field?}{equation.25.0.148}{}}
\newpmemlabel{^_64}{242}
\newlabel{eq-149}{{149}{242}{How Do You Deal With Motion In A Uniform Electrostatic Field?}{equation.25.0.149}{}}
\@writefile{lof}{\contentsline {figure}{\numberline {96}{\ignorespaces Oscillations of a charged bob in capacitor plates.}}{243}{equation.25.0.148}\protected@file@percent }
\newlabel{fig-96}{{96}{243}{How Do You Deal With Motion In A Uniform Electrostatic Field?}{equation.25.0.148}{}}
\newlabel{eq-150}{{150}{243}{How Do You Deal With Motion In A Uniform Electrostatic Field?}{equation.25.0.150}{}}
\newlabel{eq-151}{{151}{244}{How Do You Deal With Motion In A Uniform Electrostatic Field?}{equation.25.0.151}{}}
\newlabel{eq-152}{{152}{244}{How Do You Deal With Motion In A Uniform Electrostatic Field?}{equation.25.0.152}{}}
\newlabel{eq-153}{{153}{244}{How Do You Deal With Motion In A Uniform Electrostatic Field?}{equation.25.0.153}{}}
\newlabel{eq-154}{{154}{245}{How Do You Deal With Motion In A Uniform Electrostatic Field?}{equation.25.0.154}{}}
\newlabel{eq-155}{{155}{245}{How Do You Deal With Motion In A Uniform Electrostatic Field?}{equation.25.0.155}{}}
\@writefile{lof}{\contentsline {figure}{\numberline {97}{\ignorespaces A pendulum with two charges: one at the bob and other at the attachment point.}}{246}{equation.25.0.155}\protected@file@percent }
\newlabel{fig-97}{{97}{246}{How Do You Deal With Motion In A Uniform Electrostatic Field?}{equation.25.0.155}{}}
\newlabel{eq-156}{{156}{246}{How Do You Deal With Motion In A Uniform Electrostatic Field?}{equation.25.0.156}{}}
\newlabel{prob-25}{{25}{247}{}{equation.25.0.156}{}}
\@writefile{toc}{\contentsline {section}{Problems}{247}{equation.25.0.156}\protected@file@percent }
\@writefile{lof}{\contentsline {figure}{\numberline {98}{\ignorespaces Pendulum inside a parallel plate capacitor.}}{247}{Item.108}\protected@file@percent }
\newlabel{fig-98}{{98}{247}{}{Item.108}{}}
\@writefile{toc}{\contentsline {chapter}{\numberline {26}Can You Apply Coulomb's Law?}{249}{chapter.26}\protected@file@percent }
\@writefile{lof}{\addvspace {10\p@ }}
\@writefile{lot}{\addvspace {10\p@ }}
\newlabel{ch-26}{{26}{249}{Can You Apply Coulomb's Law?}{chapter.26}{}}
\newlabel{eq-157}{{157}{250}{Can You Apply Coulomb's Law?}{equation.26.0.157}{}}
\newlabel{eq-158}{{158}{250}{Can You Apply Coulomb's Law?}{equation.26.0.158}{}}
\@writefile{lof}{\contentsline {figure}{\numberline {99}{\ignorespaces Direction in Coulomb's law.}}{250}{equation.26.0.158}\protected@file@percent }
\newlabel{fig-99}{{99}{250}{Can You Apply Coulomb's Law?}{equation.26.0.158}{}}
\@writefile{lof}{\contentsline {figure}{\numberline {100}{\ignorespaces What is the charge of $Q$?}}{251}{Item.111}\protected@file@percent }
\newlabel{fig-100}{{100}{251}{Can You Apply Coulomb's Law?}{Item.111}{}}
\newlabel{eq-159}{{159}{252}{Can You Apply Coulomb's Law?}{equation.26.0.159}{}}
\newpmemlabel{^_65}{253}
\@writefile{lof}{\contentsline {figure}{\numberline {101}{\ignorespaces What is the charge of $Q$?}}{253}{Item.112}\protected@file@percent }
\newlabel{fig-101}{{101}{253}{Can You Apply Coulomb's Law?}{Item.112}{}}
\newlabel{eq-160}{{160}{254}{Can You Apply Coulomb's Law?}{equation.26.0.160}{}}
\newlabel{eq-161}{{161}{254}{Can You Apply Coulomb's Law?}{equation.26.0.161}{}}
\@writefile{lof}{\contentsline {figure}{\numberline {102}{\ignorespaces What is the charge of $Q$?}}{255}{Item.113}\protected@file@percent }
\newlabel{fig-102}{{102}{255}{Can You Apply Coulomb's Law?}{Item.113}{}}
\newlabel{eq-162}{{162}{255}{Can You Apply Coulomb's Law?}{equation.26.0.162}{}}
\newlabel{eq-163}{{163}{256}{Can You Apply Coulomb's Law?}{equation.26.0.163}{}}
\newlabel{prob-26}{{26}{256}{}{equation.26.0.163}{}}
\@writefile{toc}{\contentsline {section}{Problems}{256}{equation.26.0.163}\protected@file@percent }
\@writefile{lof}{\contentsline {figure}{\numberline {103}{\ignorespaces What is the angular velocity of uniform rotation of the bob and the tension of the string.}}{256}{Item.115}\protected@file@percent }
\newlabel{fig-103}{{103}{256}{}{Item.115}{}}
\newpmemlabel{^_66}{257}
\@writefile{toc}{\contentsline {chapter}{\numberline {27}Do You Know Ohm's Law?}{259}{chapter.27}\protected@file@percent }
\@writefile{lof}{\addvspace {10\p@ }}
\@writefile{lot}{\addvspace {10\p@ }}
\newlabel{ch-27}{{27}{259}{Do You Know Ohm's Law?}{chapter.27}{}}
\newpmemlabel{^_67}{259}
\@writefile{lof}{\contentsline {figure}{\numberline {104}{\ignorespaces Find the value of the current in the circuit.}}{259}{chapter.27}\protected@file@percent }
\newlabel{fig-104}{{104}{259}{Do You Know Ohm's Law?}{chapter.27}{}}
\newlabel{eq-164}{{164}{260}{Do You Know Ohm's Law?}{equation.27.0.164}{}}
\newlabel{eq-165}{{165}{260}{Do You Know Ohm's Law?}{equation.27.0.165}{}}
\newpmemlabel{^_68}{261}
\@writefile{lof}{\contentsline {figure}{\numberline {105}{\ignorespaces Find the value of the current in the circuit.}}{261}{equation.27.0.165}\protected@file@percent }
\newlabel{fig-105}{{105}{261}{Do You Know Ohm's Law?}{equation.27.0.165}{}}
\newlabel{eq-166}{{166}{261}{Do You Know Ohm's Law?}{equation.27.0.166}{}}
\newlabel{eq-167}{{167}{262}{Do You Know Ohm's Law?}{equation.27.0.167}{}}
\newlabel{eq-168}{{168}{264}{Do You Know Ohm's Law?}{equation.27.0.168}{}}
\@writefile{lof}{\contentsline {figure}{\numberline {106}{\ignorespaces Find the value of the current in the circuit.}}{264}{equation.27.0.169}\protected@file@percent }
\newlabel{fig-106}{{106}{264}{Do You Know Ohm's Law?}{equation.27.0.169}{}}
\newlabel{eq-170}{{170}{264}{Do You Know Ohm's Law?}{equation.27.0.170}{}}
\newlabel{eq-171}{{171}{264}{Do You Know Ohm's Law?}{equation.27.0.171}{}}
\newlabel{eq-172}{{172}{264}{Do You Know Ohm's Law?}{equation.27.0.172}{}}
\newlabel{eq-173}{{173}{265}{Do You Know Ohm's Law?}{equation.27.0.173}{}}
\newlabel{eq-174}{{174}{265}{Do You Know Ohm's Law?}{equation.27.0.174}{}}
\newpmemlabel{^_69}{266}
\@writefile{lof}{\contentsline {figure}{\numberline {107}{\ignorespaces Find the value of the voltmeter reading.}}{266}{equation.27.0.174}\protected@file@percent }
\newlabel{fig-107}{{107}{266}{Do You Know Ohm's Law?}{equation.27.0.174}{}}
\newlabel{prob-27}{{27}{267}{}{equation.27.0.174}{}}
\@writefile{toc}{\contentsline {section}{Problems}{267}{equation.27.0.174}\protected@file@percent }
\newpmemlabel{^_70}{267}
\@writefile{lof}{\contentsline {figure}{\numberline {108}{\ignorespaces Find the value of the current through resistor $R_{4}$.}}{267}{Item.117}\protected@file@percent }
\newlabel{fig-108}{{108}{267}{}{Item.117}{}}
\newpmemlabel{^_71}{267}
\@writefile{lof}{\contentsline {figure}{\numberline {109}{\ignorespaces Find the reading of the ammeter.}}{267}{Item.118}\protected@file@percent }
\newlabel{fig-109}{{109}{267}{}{Item.118}{}}
\@writefile{toc}{\contentsline {chapter}{\numberline {28}Can A Capacitor Be Connected Into A Direct-Current Circuit?}{269}{chapter.28}\protected@file@percent }
\@writefile{lof}{\addvspace {10\p@ }}
\@writefile{lot}{\addvspace {10\p@ }}
\newlabel{ch-28}{{28}{269}{Can A Capacitor Be Connected Into A Direct-Current Circuit?}{chapter.28}{}}
\@writefile{lof}{\contentsline {figure}{\numberline {110}{\ignorespaces Find the reading of the ammeter.}}{269}{chapter.28}\protected@file@percent }
\newlabel{fig-110}{{110}{269}{Can A Capacitor Be Connected Into A Direct-Current Circuit?}{chapter.28}{}}
\newlabel{eq-175}{{175}{269}{Can A Capacitor Be Connected Into A Direct-Current Circuit?}{equation.28.0.175}{}}
\newlabel{eq-176}{{176}{270}{Can A Capacitor Be Connected Into A Direct-Current Circuit?}{equation.28.0.176}{}}
\newpmemlabel{^_72}{270}
\@writefile{lof}{\contentsline {figure}{\numberline {111}{\ignorespaces Find the charge on the plates of the capacitor.}}{270}{equation.28.0.176}\protected@file@percent }
\newlabel{fig-111}{{111}{270}{Can A Capacitor Be Connected Into A Direct-Current Circuit?}{equation.28.0.176}{}}
\newlabel{eq-177}{{177}{270}{Can A Capacitor Be Connected Into A Direct-Current Circuit?}{equation.28.0.177}{}}
\newlabel{eq-178}{{178}{270}{Can A Capacitor Be Connected Into A Direct-Current Circuit?}{equation.28.0.178}{}}
\newlabel{prob-28}{{28}{271}{}{equation.28.0.178}{}}
\@writefile{toc}{\contentsline {section}{Problems}{271}{equation.28.0.178}\protected@file@percent }
\newpmemlabel{^_73}{271}
\@writefile{lof}{\contentsline {figure}{\numberline {112}{\ignorespaces Find the charge on the plates of each capacitor.}}{271}{Item.122}\protected@file@percent }
\newlabel{fig-112}{{112}{271}{}{Item.122}{}}
\newpmemlabel{^_74}{271}
\@writefile{lof}{\contentsline {figure}{\numberline {113}{\ignorespaces Find the charge on the plates of each capacitor.}}{272}{Item.123}\protected@file@percent }
\newlabel{fig-113}{{113}{272}{}{Item.123}{}}
\newpmemlabel{^_75}{272}
\@writefile{lof}{\contentsline {figure}{\numberline {114}{\ignorespaces Find the resistance $R$.}}{272}{Item.124}\protected@file@percent }
\newlabel{fig-114}{{114}{272}{}{Item.124}{}}
\@writefile{lof}{\contentsline {figure}{\numberline {115}{\ignorespaces Find the resistance $R$.}}{272}{Item.125}\protected@file@percent }
\newlabel{fig-115}{{115}{272}{}{Item.125}{}}
\newpmemlabel{^_76}{273}
\@writefile{lof}{\contentsline {figure}{\numberline {116}{\ignorespaces  At what angle to the plates will the electron fly out of the capacitor.}}{273}{Item.126}\protected@file@percent }
\newlabel{fig-116}{{116}{273}{}{Item.126}{}}
\@writefile{toc}{\contentsline {chapter}{\numberline {29}Can you compute the resistance of a branched portion of a circuit?}{275}{chapter.29}\protected@file@percent }
\@writefile{lof}{\addvspace {10\p@ }}
\@writefile{lot}{\addvspace {10\p@ }}
\newlabel{ch-29}{{29}{275}{Can you compute the resistance of a branched portion of a circuit?}{chapter.29}{}}
\newpmemlabel{^_77}{275}
\@writefile{lof}{\contentsline {figure}{\numberline {117}{\ignorespaces  At what angle to the plates will the electron fly out of the capacitor.}}{275}{chapter.29}\protected@file@percent }
\newlabel{fig-117}{{117}{275}{Can you compute the resistance of a branched portion of a circuit?}{chapter.29}{}}
\newpmemlabel{^_78}{277}
\@writefile{lof}{\contentsline {figure}{\numberline {118}{\ignorespaces  What is the total resistance of the cube?}}{277}{chapter.29}\protected@file@percent }
\newlabel{fig-118}{{118}{277}{Can you compute the resistance of a branched portion of a circuit?}{chapter.29}{}}
\newpmemlabel{^_79}{278}
\@writefile{lof}{\contentsline {figure}{\numberline {119}{\ignorespaces  What is the total resistance of the cube?}}{278}{chapter.29}\protected@file@percent }
\newlabel{fig-119}{{119}{278}{Can you compute the resistance of a branched portion of a circuit?}{chapter.29}{}}
\newpmemlabel{^_80}{279}
\@writefile{lof}{\contentsline {figure}{\numberline {120}{\ignorespaces  What is the total resistance of the given configuration?}}{279}{chapter.29}\protected@file@percent }
\newlabel{fig-120}{{120}{279}{Can you compute the resistance of a branched portion of a circuit?}{chapter.29}{}}
\newlabel{179}{{179}{280}{Can you compute the resistance of a branched portion of a circuit?}{equation.29.0.179}{}}
\newlabel{prob-29}{{29}{280}{}{equation.29.0.179}{}}
\@writefile{toc}{\contentsline {section}{Problems}{280}{equation.29.0.179}\protected@file@percent }
\newpmemlabel{^_81}{280}
\@writefile{lof}{\contentsline {figure}{\numberline {121}{\ignorespaces  What are the readings of the voltmeter and ammeter?}}{280}{Item.127}\protected@file@percent }
\newlabel{fig-121}{{121}{280}{}{Item.127}{}}
\@writefile{lof}{\contentsline {figure}{\numberline {122}{\ignorespaces  What is the total resistance?}}{281}{Item.131}\protected@file@percent }
\newlabel{fig-122}{{122}{281}{}{Item.131}{}}
\@writefile{toc}{\contentsline {chapter}{\numberline {30}Why Did The Electric Bulb Burn Out?}{283}{chapter.30}\protected@file@percent }
\@writefile{lof}{\addvspace {10\p@ }}
\@writefile{lot}{\addvspace {10\p@ }}
\newlabel{ch-30}{{30}{283}{Why Did The Electric Bulb Burn Out?}{chapter.30}{}}
\newlabel{eq-180}{{180}{283}{Why Did The Electric Bulb Burn Out?}{equation.30.0.180}{}}
\newlabel{eq-181}{{181}{283}{Why Did The Electric Bulb Burn Out?}{equation.30.0.181}{}}
\newlabel{eq-182}{{182}{283}{Why Did The Electric Bulb Burn Out?}{equation.30.0.182}{}}
\newpmemlabel{^_82}{284}
\@writefile{lof}{\contentsline {figure}{\numberline {123}{\ignorespaces Time taken by the kettle to boil water in different configurations.}}{284}{equation.30.0.182}\protected@file@percent }
\newlabel{fig-123}{{123}{284}{Why Did The Electric Bulb Burn Out?}{equation.30.0.182}{}}
\newlabel{eq-183}{{183}{285}{Why Did The Electric Bulb Burn Out?}{equation.30.0.183}{}}
\newlabel{eq-184}{{184}{285}{Why Did The Electric Bulb Burn Out?}{equation.30.0.184}{}}
\newlabel{eq-185}{{185}{286}{Why Did The Electric Bulb Burn Out?}{equation.30.0.185}{}}
\newlabel{eq-186}{{186}{286}{Why Did The Electric Bulb Burn Out?}{equation.30.0.186}{}}
\newpmemlabel{^_83}{286}
\@writefile{lof}{\contentsline {figure}{\numberline {124}{\ignorespaces Graph of the function $y=x/(x+ 1)^{2}$ which shows variation in the useful power with an increase in the external resistance.}}{287}{equation.30.0.186}\protected@file@percent }
\newlabel{fig-124}{{124}{287}{Why Did The Electric Bulb Burn Out?}{equation.30.0.186}{}}
\@writefile{lof}{\contentsline {figure}{\numberline {125}{\ignorespaces Compute the power expended on each bulb and the relative change in the power expended on each bulb if one of the two hundred bulbs burns out.}}{287}{equation.30.0.186}\protected@file@percent }
\newlabel{fig-125}{{125}{287}{Why Did The Electric Bulb Burn Out?}{equation.30.0.186}{}}
\newlabel{eq-187}{{187}{287}{Why Did The Electric Bulb Burn Out?}{equation.30.0.187}{}}
\newlabel{eq-188}{{188}{288}{Why Did The Electric Bulb Burn Out?}{equation.30.0.188}{}}
\newlabel{prob-30}{{30}{288}{}{equation.30.0.188}{}}
\@writefile{toc}{\contentsline {section}{Problems}{288}{equation.30.0.188}\protected@file@percent }
\@writefile{lof}{\contentsline {figure}{\numberline {126}{\ignorespaces  Compute the resistance $R$ and the useful power..}}{288}{Item.132}\protected@file@percent }
\newlabel{fig-126}{{126}{288}{}{Item.132}{}}
\@writefile{lof}{\contentsline {figure}{\numberline {127}{\ignorespaces  Compute the internal resistance of the current source and find the efficiencies.}}{289}{Item.134}\protected@file@percent }
\newlabel{fig-127}{{127}{289}{}{Item.134}{}}
\newpmemlabel{^_84}{291}
\@writefile{toc}{\contentsline {chapter}{\numberline {31}Do You Know How Light Beams Are Reflected And Refracted?}{293}{chapter.31}\protected@file@percent }
\@writefile{lof}{\addvspace {10\p@ }}
\@writefile{lot}{\addvspace {10\p@ }}
\newlabel{ch-31}{{31}{293}{Do You Know How Light Beams Are Reflected And Refracted?}{chapter.31}{}}
\@writefile{lof}{\contentsline {figure}{\numberline {128}{\ignorespaces  Reflection could take place in differnt planes.}}{293}{chapter.31}\protected@file@percent }
\newlabel{fig-128}{{128}{293}{Do You Know How Light Beams Are Reflected And Refracted?}{chapter.31}{}}
\newlabel{eq-189}{{189}{293}{Do You Know How Light Beams Are Reflected And Refracted?}{equation.31.0.189}{}}
\newpmemlabel{^_85}{294}
\@writefile{lof}{\contentsline {figure}{\numberline {129}{\ignorespaces Where will the coin appear to be?}}{294}{equation.31.0.189}\protected@file@percent }
\newlabel{fig-129}{{129}{294}{Do You Know How Light Beams Are Reflected And Refracted?}{equation.31.0.189}{}}
\newlabel{eq-190}{{190}{294}{Do You Know How Light Beams Are Reflected And Refracted?}{equation.31.0.190}{}}
\newlabel{eq-191}{{191}{294}{Do You Know How Light Beams Are Reflected And Refracted?}{equation.31.0.191}{}}
\newlabel{eq-192}{{192}{295}{Do You Know How Light Beams Are Reflected And Refracted?}{equation.31.0.192}{}}
\newpmemlabel{^_86}{295}
\@writefile{lof}{\contentsline {figure}{\numberline {130}{\ignorespaces Finding the minimum distance rom the point where the diver stands to the points of the bottom that he can see reflected from the surface of water.}}{295}{equation.31.0.192}\protected@file@percent }
\newlabel{fig-130}{{130}{295}{Do You Know How Light Beams Are Reflected And Refracted?}{equation.31.0.192}{}}
\newlabel{eq-193}{{193}{296}{Do You Know How Light Beams Are Reflected And Refracted?}{equation.31.0.193}{}}
\newlabel{eq-194}{{194}{296}{Do You Know How Light Beams Are Reflected And Refracted?}{equation.31.0.194}{}}
\@writefile{lof}{\contentsline {figure}{\numberline {131}{\ignorespaces Refracting a beam through several plates of different refractive indices.}}{297}{equation.31.0.194}\protected@file@percent }
\newlabel{fig-131}{{131}{297}{Do You Know How Light Beams Are Reflected And Refracted?}{equation.31.0.194}{}}
\newlabel{prob-31}{{31}{299}{}{equation.31.0.194}{}}
\@writefile{toc}{\contentsline {section}{Problems}{299}{equation.31.0.194}\protected@file@percent }
\@writefile{toc}{\contentsline {chapter}{\numberline {32}How Do You Construct Images Formed By Mirrors And Lenses?}{301}{chapter.32}\protected@file@percent }
\@writefile{lof}{\addvspace {10\p@ }}
\@writefile{lot}{\addvspace {10\p@ }}
\newlabel{ch-32}{{32}{301}{How Do You Construct Images Formed By Mirrors And Lenses?}{chapter.32}{}}
\newpmemlabel{^_87}{301}
\@writefile{lof}{\contentsline {figure}{\numberline {132}{\ignorespaces Construct the image of a man formed in the the plane mirror.}}{301}{chapter.32}\protected@file@percent }
\newlabel{fig-132}{{132}{301}{How Do You Construct Images Formed By Mirrors And Lenses?}{chapter.32}{}}
\newpmemlabel{^_88}{302}
\@writefile{lof}{\contentsline {figure}{\numberline {133}{\ignorespaces Construct the images in the system of two plane mirror.}}{302}{chapter.32}\protected@file@percent }
\newlabel{fig-133}{{133}{302}{How Do You Construct Images Formed By Mirrors And Lenses?}{chapter.32}{}}
\newpmemlabel{^_89}{303}
\@writefile{lof}{\contentsline {figure}{\numberline {134}{\ignorespaces Examples involving a converging lens.}}{303}{chapter.32}\protected@file@percent }
\newlabel{fig-134}{{134}{303}{How Do You Construct Images Formed By Mirrors And Lenses?}{chapter.32}{}}
\newpmemlabel{^_90}{304}
\@writefile{lof}{\contentsline {figure}{\numberline {135}{\ignorespaces Image construction by a lens.}}{304}{chapter.32}\protected@file@percent }
\newlabel{fig-135}{{135}{304}{How Do You Construct Images Formed By Mirrors And Lenses?}{chapter.32}{}}
\newpmemlabel{^_91}{305}
\@writefile{lof}{\contentsline {figure}{\numberline {136}{\ignorespaces Construct the images in the system of two plane mirror.}}{306}{chapter.32}\protected@file@percent }
\newlabel{fig-136}{{136}{306}{How Do You Construct Images Formed By Mirrors And Lenses?}{chapter.32}{}}
\newpmemlabel{^_92}{307}
\@writefile{lof}{\contentsline {figure}{\numberline {137}{\ignorespaces Construct the images with a diverging lens.}}{308}{chapter.32}\protected@file@percent }
\newlabel{fig-137}{{137}{308}{How Do You Construct Images Formed By Mirrors And Lenses?}{chapter.32}{}}
\newpmemlabel{^_93}{309}
\@writefile{lof}{\contentsline {figure}{\numberline {138}{\ignorespaces Construct the images formed in the optical system.}}{309}{chapter.32}\protected@file@percent }
\newlabel{fig-138}{{138}{309}{How Do You Construct Images Formed By Mirrors And Lenses?}{chapter.32}{}}
\newpmemlabel{^_94}{310}
\@writefile{lof}{\contentsline {figure}{\numberline {139}{\ignorespaces Construct the images in the system of two plane mirror.}}{311}{chapter.32}\protected@file@percent }
\newlabel{fig-139}{{139}{311}{How Do You Construct Images Formed By Mirrors And Lenses?}{chapter.32}{}}
\@writefile{toc}{\contentsline {chapter}{\numberline {33}How Well Do You Solve Problems Involving Mirrors And Lenses?}{313}{chapter.33}\protected@file@percent }
\@writefile{lof}{\addvspace {10\p@ }}
\@writefile{lot}{\addvspace {10\p@ }}
\newlabel{ch-33}{{33}{313}{How Well Do You Solve Problems Involving Mirrors And Lenses?}{chapter.33}{}}
\newlabel{eq-195}{{195}{313}{How Well Do You Solve Problems Involving Mirrors And Lenses?}{equation.33.0.195}{}}
\newpmemlabel{^_95}{313}
\newlabel{eq-196}{{196}{314}{How Well Do You Solve Problems Involving Mirrors And Lenses?}{equation.33.0.196}{}}
\newlabel{eq-197}{{197}{314}{How Well Do You Solve Problems Involving Mirrors And Lenses?}{equation.33.0.197}{}}
\newlabel{eq-198}{{198}{314}{How Well Do You Solve Problems Involving Mirrors And Lenses?}{equation.33.0.198}{}}
\newlabel{eq-199}{{199}{314}{How Well Do You Solve Problems Involving Mirrors And Lenses?}{equation.33.0.199}{}}
\newpmemlabel{^_96}{315}
\@writefile{lof}{\contentsline {figure}{\numberline {140}{\ignorespaces Find the focal length of the mirror.}}{315}{equation.33.0.199}\protected@file@percent }
\newlabel{fig-140}{{140}{315}{How Well Do You Solve Problems Involving Mirrors And Lenses?}{equation.33.0.199}{}}
\newlabel{eq-200}{{200}{316}{How Well Do You Solve Problems Involving Mirrors And Lenses?}{equation.33.0.200}{}}
\newlabel{eq-201}{{201}{316}{How Well Do You Solve Problems Involving Mirrors And Lenses?}{equation.33.0.201}{}}
\newlabel{eq-202}{{202}{316}{How Well Do You Solve Problems Involving Mirrors And Lenses?}{equation.33.0.202}{}}
\newlabel{eq-203}{{203}{316}{How Well Do You Solve Problems Involving Mirrors And Lenses?}{equation.33.0.203}{}}
\newlabel{eq-204}{{204}{318}{How Well Do You Solve Problems Involving Mirrors And Lenses?}{equation.33.0.204}{}}
\newlabel{prob-33}{{33}{318}{}{equation.33.0.204}{}}
\@writefile{toc}{\contentsline {section}{Problems}{318}{equation.33.0.204}\protected@file@percent }
\@writefile{lof}{\contentsline {figure}{\numberline {141}{\ignorespaces Construct the image formed in the system and compute its position.}}{318}{Item.143}\protected@file@percent }
\newlabel{fig-141}{{141}{318}{}{Item.143}{}}
\@writefile{toc}{\contentsline {chapter}{Answers}{321}{section*.6}\protected@file@percent }
\newlabel{answers}{{33}{321}{Answers}{section*.6}{}}
\pgfsyspdfmark {pgfid27}{3520053}{40168976}
\pgfsyspdfmark {pgfid28}{3677994}{40168976}
\pgfsyspdfmark {pgfid29}{3520053}{38596112}
\pgfsyspdfmark {pgfid30}{3520053}{37023248}
\ttl@finishall
